0.010000 0.003750 -0.085000
0.010000 0.003750 -0.085000
0.009351 -0.025925 -0.083070
0.008703 -0.052377 -0.076419
0.008131 -0.074105 -0.067065
0.007663 -0.091201 -0.056793
0.007297 -0.104466 -0.046684
0.007018 -0.114784 -0.037252
0.006810 -0.122897 -0.028678
0.006656 -0.129370 -0.020975
0.006545 -0.134614 -0.014086
