0.010000 0.003750 -0.085000
0.010000 0.003750 -0.085000
0.009354 -0.025941 -0.083067
0.008710 -0.052404 -0.076409
0.008141 -0.074138 -0.067049
0.007675 -0.091237 -0.056770
0.007311 -0.104501 -0.046657
0.007033 -0.114818 -0.037222
0.006826 -0.122931 -0.028645
0.006673 -0.129402 -0.020940
0.006562 -0.134644 -0.014051
