0.010000 0.003750 -0.085000
0.010000 0.003750 -0.085000
0.009989 0.000931 -0.085056
0.009970 -0.001857 -0.085067
0.009945 -0.004613 -0.085035
0.009914 -0.007335 -0.084961
0.009877 -0.010025 -0.084846
0.009833 -0.012680 -0.084692
0.009785 -0.015302 -0.084502
0.009732 -0.017889 -0.084275
0.009674 -0.020443 -0.084014
