1.000000 0.050000
1.000000 0.050000
1.000074 0.046023
1.000120 0.042044
1.000147 0.038063
1.000156 0.034081
1.000147 0.030098
1.000119 0.026114
1.000072 0.022130
1.000007 0.018145
0.999924 0.014159
0.999822 0.010174
0.999702 0.006189
0.999563 0.002205
0.999405 -0.001779
0.999230 -0.005762
