# File created by SolidSim
v 0 8.3147 -5.5557
v 0 5.5557 -8.3147
v 0 1.9509 -9.80785
v 0 0 -10
v 0 -1.9509 -9.80785
v 0 -5.5557 -8.3147
v 0.3806 9.80785 -1.91342
v 0.74658 9.2388 -3.7533
v 1.08386 8.3147 -5.44895
v 1.3795 7.07107 -6.9352
v 1.62212 5.5557 -8.15493
v 1.8024 3.82683 -9.06127
v 1.91342 1.9509 -9.6194
v 1.9509 0 -9.80785
v 1.91342 -1.9509 -9.6194
v 1.8024 -3.82683 -9.06127
v 1.62212 -5.5557 -8.15493
v 1.3795 -7.07107 -6.9352
v 1.08386 -8.3147 -5.44895
v 0.74658 -9.2388 -3.7533
v 0.3806 -9.80785 -1.91342
v 0.74658 9.80785 -1.8024
v 1.46447 9.2388 -3.53553
v 2.12608 8.3147 -5.1328
v 2.70598 7.07107 -6.53281
v 3.1819 5.5557 -7.68178
v 3.53553 3.82683 -8.53553
v 3.7533 1.9509 -9.06127
v 3.82683 0 -9.23879
v 3.7533 -1.9509 -9.06127
v 3.53553 -3.82683 -8.53553
v 3.1819 -5.5557 -7.68178
v 2.70598 -7.07107 -6.53281
v 2.12608 -8.3147 -5.1328
v 1.46447 -9.2388 -3.53553
v 0.74658 -9.80785 -1.8024
v 1.08386 9.80785 -1.62212
v 2.12608 9.2388 -3.1819
v 3.08658 8.3147 -4.6194
v 3.92847 7.07107 -5.87938
v 4.6194 5.5557 -6.91342
v 5.1328 3.82683 -7.68178
v 5.44895 1.9509 -8.15493
v 5.5557 0 -8.31469
v 5.44895 -1.9509 -8.15493
v 5.1328 -3.82683 -7.68178
v 4.6194 -5.5557 -6.91342
v 3.92847 -7.07107 -5.87938
v 3.08658 -8.3147 -4.6194
v 2.12608 -9.2388 -3.1819
v 1.08386 -9.80785 -1.62212
v 1.3795 9.80785 -1.3795
v 2.70598 9.2388 -2.70598
v 3.92847 8.3147 -3.92847
v 5 7.07107 -5
v 5.87938 5.5557 -5.87938
v 6.53281 3.82683 -6.53281
v 6.9352 1.9509 -6.9352
v 7.07107 0 -7.07107
v 6.9352 -1.9509 -6.9352
v 6.53281 -3.82683 -6.53281
v 5.87938 -5.5557 -5.87938
v 5 -7.07107 -5
v 3.92847 -8.3147 -3.92847
v 2.70598 -9.2388 -2.70598
v 1.3795 -9.80785 -1.3795
v 1.62212 9.80785 -1.08386
v 3.1819 9.2388 -2.12608
v 4.6194 8.3147 -3.08658
v 5.87938 7.07107 -3.92847
v 6.91342 5.5557 -4.6194
v 7.68178 3.82683 -5.1328
v 8.15493 1.9509 -5.44895
v 8.3147 0 -5.5557
v 8.15493 -1.9509 -5.44895
v 7.68178 -3.82683 -5.1328
v 6.91342 -5.5557 -4.6194
v 5.87938 -7.07107 -3.92847
v 4.6194 -8.3147 -3.08658
v 3.1819 -9.2388 -2.12608
v 1.62212 -9.80785 -1.08386
v 0 10 0
v 1.8024 9.80785 -0.74658
v 3.53553 9.2388 -1.46447
v 5.1328 8.3147 -2.12607
v 6.53281 7.07107 -2.70598
v 7.68178 5.5557 -3.1819
v 8.53553 3.82683 -3.53553
v 9.06127 1.9509 -3.7533
v 9.23879 0 -3.82683
v 9.06127 -1.9509 -3.7533
v 8.53553 -3.82683 -3.53553
v 7.68178 -5.5557 -3.1819
v 6.53281 -7.07107 -2.70598
v 5.1328 -8.3147 -2.12607
v 3.53553 -9.2388 -1.46447
v 1.8024 -9.80785 -0.74658
v 1.91342 9.80785 -0.3806
v 3.7533 9.2388 -0.74658
v 5.44895 8.3147 -1.08386
v 6.9352 7.07107 -1.3795
v 8.15493 5.5557 -1.62212
v 9.06127 3.82683 -1.8024
v 9.6194 1.9509 -1.91342
v 9.80785 0 -1.9509
v 9.6194 -1.9509 -1.91342
v 9.06127 -3.82683 -1.8024
v 8.15493 -5.5557 -1.62212
v 6.9352 -7.07107 -1.3795
v 5.44895 -8.3147 -1.08386
v 3.7533 -9.2388 -0.74658
v 1.91342 -9.80785 -0.3806
v 1.9509 9.80785 0
v 3.82683 9.2388 0
v 5.5557 8.3147 0
v 7.07107 7.07107 0
v 8.31469 5.5557 0
v 9.23879 3.82683 0
v 9.80785 1.9509 0
v 10 0 0
v 9.80785 -1.9509 0
v 9.23879 -3.82683 0
v 8.31469 -5.5557 0
v 7.07107 -7.07107 0
v 5.5557 -8.3147 0
v 3.82683 -9.2388 0
v 1.9509 -9.80785 0
v 1.91342 9.80785 0.3806
v 3.7533 9.2388 0.74658
v 5.44895 8.3147 1.08386
v 6.9352 7.07107 1.3795
v 8.15493 5.5557 1.62212
v 9.06127 3.82683 1.8024
v 9.6194 1.9509 1.91342
v 9.80785 0 1.9509
v 9.6194 -1.9509 1.91342
v 9.06127 -3.82683 1.8024
v 8.15493 -5.5557 1.62212
v 6.9352 -7.07107 1.3795
v 5.44895 -8.3147 1.08386
v 3.7533 -9.2388 0.74658
v 1.91342 -9.80785 0.3806
v 1.8024 9.80785 0.74658
v 3.53553 9.2388 1.46447
v 5.1328 8.3147 2.12608
v 6.53281 7.07107 2.70598
v 7.68178 5.5557 3.1819
v 8.53553 3.82683 3.53553
v 9.06127 1.9509 3.7533
v 9.23879 0 3.82683
v 9.06127 -1.9509 3.7533
v 8.53553 -3.82683 3.53553
v 7.68178 -5.5557 3.1819
v 6.53281 -7.07107 2.70598
v 5.1328 -8.3147 2.12608
v 3.53553 -9.2388 1.46447
v 1.8024 -9.80785 0.74658
v 1.62212 9.80785 1.08386
v 3.1819 9.2388 2.12608
v 4.6194 8.3147 3.08658
v 5.87938 7.07107 3.92847
v 6.91341 5.5557 4.6194
v 7.68178 3.82683 5.1328
v 8.15493 1.9509 5.44895
v 8.31469 0 5.5557
v 8.15493 -1.9509 5.44895
v 7.68178 -3.82683 5.1328
v 6.91341 -5.5557 4.6194
v 5.87938 -7.07107 3.92847
v 4.6194 -8.3147 3.08658
v 3.1819 -9.2388 2.12608
v 1.62212 -9.80785 1.08386
v 1.3795 9.80785 1.3795
v 2.70598 9.2388 2.70598
v 3.92847 8.3147 3.92847
v 5 7.07107 5
v 5.87938 5.5557 5.87938
v 6.53281 3.82683 6.53281
v 6.9352 1.9509 6.9352
v 7.07106 0 7.07107
v 6.9352 -1.9509 6.9352
v 6.53281 -3.82683 6.53281
v 5.87938 -5.5557 5.87938
v 5 -7.07107 5
v 3.92847 -8.3147 3.92847
v 2.70598 -9.2388 2.70598
v 1.3795 -9.80785 1.3795
v 1.08386 9.80785 1.62212
v 2.12607 9.2388 3.1819
v 3.08658 8.3147 4.6194
v 3.92847 7.07107 5.87938
v 4.6194 5.5557 6.91342
v 5.1328 3.82683 7.68178
v 5.44895 1.9509 8.15493
v 5.5557 0 8.31469
v 5.44895 -1.9509 8.15493
v 5.1328 -3.82683 7.68178
v 4.6194 -5.5557 6.91342
v 3.92847 -7.07107 5.87938
v 3.08658 -8.3147 4.6194
v 2.12607 -9.2388 3.1819
v 1.08386 -9.80785 1.62212
v 0.74658 9.80785 1.8024
v 1.46447 9.2388 3.53553
v 2.12607 8.3147 5.1328
v 2.70598 7.07107 6.53281
v 3.18189 5.5557 7.68178
v 3.53553 3.82683 8.53553
v 3.7533 1.9509 9.06127
v 3.82683 0 9.23879
v 3.7533 -1.9509 9.06127
v 3.53553 -3.82683 8.53553
v 3.18189 -5.5557 7.68178
v 2.70598 -7.07107 6.53281
v 2.12607 -8.3147 5.1328
v 1.46447 -9.2388 3.53553
v 0.74658 -9.80785 1.8024
v 0.3806 9.80785 1.91342
v 0.74658 9.2388 3.7533
v 1.08386 8.3147 5.44895
v 1.3795 7.07107 6.9352
v 1.62212 5.5557 8.15493
v 1.8024 3.82683 9.06127
v 1.91342 1.9509 9.61939
v 1.9509 0 9.80785
v 1.91342 -1.9509 9.61939
v 1.8024 -3.82683 9.06127
v 1.62212 -5.5557 8.15493
v 1.3795 -7.07107 6.9352
v 1.08386 -8.3147 5.44895
v 0.74658 -9.2388 3.7533
v 0.3806 -9.80785 1.91342
v 0 9.80785 1.9509
v 0 9.2388 3.82683
v 0 8.3147 5.5557
v 0 7.07107 7.07107
v 0 5.5557 8.31469
v 0 3.82683 9.23879
v 0 1.9509 9.80785
v 0 0 9.99999
v 0 -1.9509 9.80785
v 0 -3.82683 9.23879
v 0 -5.5557 8.31469
v 0 -7.07107 7.07107
v 0 -8.3147 5.5557
v 0 -9.2388 3.82683
v 0 -9.80785 1.9509
v -0.3806 9.80785 1.91342
v -0.74658 9.2388 3.7533
v -1.08386 8.3147 5.44895
v -1.3795 7.07107 6.9352
v -1.62212 5.5557 8.15493
v -1.8024 3.82683 9.06127
v -1.91342 1.9509 9.61939
v -1.95091 0 9.80785
v -1.91342 -1.9509 9.61939
v -1.8024 -3.82683 9.06127
v -1.62212 -5.5557 8.15493
v -1.3795 -7.07107 6.9352
v -1.08386 -8.3147 5.44895
v -0.74658 -9.2388 3.7533
v -0.3806 -9.80785 1.91342
v -0.74658 9.80785 1.8024
v -1.46447 9.2388 3.53553
v -2.12608 8.3147 5.1328
v -2.70598 7.07107 6.53281
v -3.1819 5.5557 7.68177
v -3.53553 3.82683 8.53553
v -3.7533 1.9509 9.06127
v -3.82683 0 9.23879
v -3.7533 -1.9509 9.06127
v -3.53553 -3.82683 8.53553
v -3.1819 -5.5557 7.68177
v -2.70598 -7.07107 6.53281
v -2.12608 -8.3147 5.1328
v -1.46447 -9.2388 3.53553
v -0.74658 -9.80785 1.8024
v -1.08386 9.80785 1.62212
v -2.12608 9.2388 3.1819
v -3.08658 8.3147 4.61939
v -3.92847 7.07107 5.87938
v -4.6194 5.5557 6.91341
v -5.1328 3.82683 7.68178
v -5.44895 1.9509 8.15493
v -5.5557 0 8.31469
v -5.44895 -1.9509 8.15493
v -5.1328 -3.82683 7.68178
v -4.6194 -5.5557 6.91341
v -3.92847 -7.07107 5.87938
v -3.08658 -8.3147 4.61939
v -2.12608 -9.2388 3.1819
v -1.08386 -9.80785 1.62212
v -1.3795 9.80785 1.3795
v -2.70598 9.2388 2.70598
v -3.92847 8.3147 3.92847
v -5 7.07107 5
v -5.87938 5.5557 5.87937
v -6.53281 3.82683 6.53281
v -6.9352 1.9509 6.9352
v -7.07106 0 7.07106
v -6.9352 -1.9509 6.9352
v -6.53281 -3.82683 6.53281
v -5.87938 -5.5557 5.87937
v -5 -7.07107 5
v -3.92847 -8.3147 3.92847
v -2.70598 -9.2388 2.70598
v -1.3795 -9.80785 1.3795
v 0 -10 0
v -1.62212 9.80785 1.08386
v -3.1819 9.2388 2.12607
v -4.6194 8.3147 3.08658
v -5.87938 7.07107 3.92847
v -6.91341 5.5557 4.61939
v -7.68177 3.82683 5.1328
v -8.15493 1.9509 5.44895
v -8.31469 0 5.55569
v -8.15493 -1.9509 5.44895
v -7.68177 -3.82683 5.1328
v -6.91341 -5.5557 4.61939
v -5.87938 -7.07107 3.92847
v -4.6194 -8.3147 3.08658
v -3.1819 -9.2388 2.12607
v -1.62212 -9.80785 1.08386
v -1.8024 9.80785 0.74658
v -3.53553 9.2388 1.46447
v -5.1328 8.3147 2.12607
v -6.53281 7.07107 2.70598
v -7.68177 5.5557 3.18189
v -8.53553 3.82683 3.53553
v -9.06127 1.9509 3.7533
v -9.23879 0 3.82683
v -9.06127 -1.9509 3.7533
v -8.53553 -3.82683 3.53553
v -7.68177 -5.5557 3.18189
v -6.53281 -7.07107 2.70598
v -5.1328 -8.3147 2.12607
v -3.53553 -9.2388 1.46447
v -1.8024 -9.80785 0.74658
v -1.91342 9.80785 0.3806
v -3.7533 9.2388 0.74658
v -5.44895 8.3147 1.08386
v -6.9352 7.07107 1.3795
v -8.15493 5.5557 1.62211
v -9.06127 3.82683 1.8024
v -9.61939 1.9509 1.91341
v -9.80784 0 1.9509
v -9.61939 -1.9509 1.91341
v -9.06127 -3.82683 1.8024
v -8.15493 -5.5557 1.62211
v -6.9352 -7.07107 1.3795
v -5.17444 -7.90038 1.02926
v -3.7533 -9.2388 0.74658
v -1.91342 -9.80785 0.3806
v -1.9509 9.80785 0
v -3.82683 9.2388 0
v -5.5557 8.3147 0
v -7.07107 7.07107 0
v -8.31469 5.5557 0
v -9.23879 3.82683 0
v -9.80785 1.9509 0
v -9.99999 0 0
v -9.80785 -1.9509 0
v -9.23879 -3.82683 0
v -8.31469 -5.5557 0
v -7.07107 -7.07107 0
v -5.27581 -7.90038 3.94993e-08
v -3.82683 -9.2388 0
v -1.9509 -9.80785 0
v -1.91342 9.80785 -0.3806
v -3.7533 9.2388 -0.74658
v -5.44895 8.3147 -1.08386
v -6.9352 7.07107 -1.3795
v -8.15493 5.5557 -1.62212
v -9.06127 3.82683 -1.8024
v -9.61939 1.9509 -1.91342
v -9.80784 0 -1.95091
v -9.61939 -1.9509 -1.91342
v -9.06127 -3.82683 -1.8024
v -8.15493 -5.5557 -1.62212
v -6.9352 -7.07107 -1.3795
v -5.17444 -7.90038 -1.02926
v -3.7533 -9.2388 -0.74658
v -1.91342 -9.80785 -0.3806
v -1.8024 9.80785 -0.74658
v -3.53553 9.2388 -1.46447
v -5.13279 8.3147 -2.12607
v -6.53281 7.07107 -2.70598
v -7.68177 5.5557 -3.1819
v -8.53553 3.82683 -3.53553
v -9.06127 1.9509 -3.7533
v -9.23878 0 -3.82683
v -9.06127 -1.9509 -3.7533
v -8.53553 -3.82683 -3.53553
v -7.68177 -5.5557 -3.1819
v -6.53281 -7.07107 -2.70598
v -5.13279 -8.3147 -2.12607
v -3.53553 -9.2388 -1.46447
v -1.8024 -9.80785 -0.74658
v -1.62212 9.80785 -1.08386
v -3.18189 9.2388 -2.12607
v -4.61939 8.3147 -3.08658
v -5.87938 7.07107 -3.92847
v -6.91341 5.5557 -4.6194
v -7.68177 3.82683 -5.1328
v -8.15493 1.9509 -5.44895
v -8.31468 0 -5.5557
v -8.15493 -1.9509 -5.44895
v -7.68177 -3.82683 -5.1328
v -6.91341 -5.5557 -4.6194
v -5.87938 -7.07107 -3.92847
v -4.61939 -8.3147 -3.08658
v -3.18189 -9.2388 -2.12607
v -1.62212 -9.80785 -1.08386
v -1.3795 9.80785 -1.3795
v -2.70598 9.2388 -2.70598
v -3.92847 8.3147 -3.92847
v -5 7.07107 -5
v -5.87937 5.5557 -5.87938
v -6.53281 3.82683 -6.53281
v -6.93519 1.9509 -6.9352
v -7.07106 0 -7.07106
v -6.93519 -1.9509 -6.9352
v -6.53281 -3.82683 -6.53281
v -5.87937 -5.5557 -5.87938
v -5 -7.07107 -5
v -3.92847 -8.3147 -3.92847
v -2.70598 -9.2388 -2.70598
v -1.3795 -9.80785 -1.3795
v -1.08386 9.80785 -1.62212
v -2.12607 9.2388 -3.1819
v -3.08658 8.3147 -4.61939
v -3.92847 7.07107 -5.87938
v -4.61939 5.5557 -6.91341
v -5.1328 3.82683 -7.68177
v -5.44895 1.9509 -8.15493
v -5.55569 0 -8.31469
v -5.44895 -1.9509 -8.15493
v -5.1328 -3.82683 -7.68177
v -4.61939 -5.5557 -6.91341
v -3.92847 -7.07107 -5.87938
v -3.08658 -8.3147 -4.61939
v -2.12607 -9.2388 -3.1819
v -1.08386 -9.80785 -1.62212
v -0.74658 9.80785 -1.8024
v -1.46446 9.2388 -3.53553
v -2.12607 8.3147 -5.13279
v -2.70598 7.07107 -6.53281
v -3.18189 5.5557 -7.68177
v -3.53553 3.82683 -8.53553
v -3.7533 1.9509 -9.06127
v -3.82683 0 -9.23879
v -3.7533 -1.9509 -9.06127
v -3.53553 -3.82683 -8.53553
v -3.18189 -5.5557 -7.68177
v -2.70598 -7.07107 -6.53281
v -2.12607 -8.3147 -5.13279
v -1.46446 -9.2388 -3.53553
v -0.74658 -9.80785 -1.8024
v -0.3806 9.80785 -1.91342
v -0.74658 9.2388 -3.7533
v -1.08386 8.3147 -5.44895
v -1.3795 7.07107 -6.9352
v -1.62211 5.5557 -8.15493
v -1.8024 3.82683 -9.06127
v -1.91341 1.9509 -9.61939
v -1.9509 0 -9.80784
v -1.91341 -1.9509 -9.61939
v -1.8024 -3.82683 -9.06127
v -1.62211 -5.5557 -8.15493
v -1.3795 -7.07107 -6.9352
v -1.08386 -8.3147 -5.44895
v -0.74658 -9.2388 -3.7533
v -0.3806 -9.80785 -1.91342
v 0 9.80785 -1.9509
v 0 9.2388 -3.82683
v 0 7.07107 -7.07107
v 0 3.82683 -9.23879
v 0 -3.82683 -9.23879
v 0 -7.07107 -7.07107
v 0 -8.3147 -5.5557
v 0 -9.2388 -3.82683
v 0 -9.80785 -1.9509
vn -1.46712e-07 0.828645 -0.559775
vn 8.87135e-08 0.552759 -0.833341
vn -2.51399e-06 0.193931 -0.981015
vn -2.96319e-06 5.56307e-07 -1
vn -3.09284e-06 -0.193931 -0.981015
vn 8.96573e-08 -0.552759 -0.833341
vn 0.0392058 0.979598 -0.197107
vn 0.0756723 0.921708 -0.380433
vn 0.109206 0.828644 -0.549019
vn 0.138543 0.704059 -0.696496
vn 0.162577 0.552759 -0.817329
vn 0.180412 0.380538 -0.906996
vn 0.191387 0.19393 -0.962165
vn 0.195092 2.12872e-07 -0.980785
vn 0.191388 -0.19393 -0.962165
vn 0.180412 -0.380538 -0.906996
vn 0.162577 -0.55276 -0.817328
vn 0.138544 -0.704058 -0.696496
vn 0.109206 -0.828644 -0.549019
vn 0.0756723 -0.921708 -0.380432
vn 0.0392059 -0.979598 -0.197107
vn 0.076907 0.979598 -0.18567
vn 0.148436 0.921708 -0.35836
vn 0.214216 0.828644 -0.517166
vn 0.27176 0.704059 -0.656085
vn 0.318905 0.55276 -0.769907
vn 0.353892 0.380536 -0.854373
vn 0.37542 0.19393 -0.90634
vn 0.382684 -3.40596e-07 -0.923879
vn 0.375419 -0.193929 -0.90634
vn 0.353891 -0.380536 -0.854373
vn 0.318904 -0.552761 -0.769906
vn 0.271759 -0.704059 -0.656086
vn 0.214216 -0.828644 -0.517166
vn 0.148436 -0.921708 -0.358359
vn 0.0769073 -0.979598 -0.18567
vn 0.111651 0.979598 -0.167099
vn 0.215498 0.921707 -0.322516
vn 0.310996 0.828644 -0.465436
vn 0.394533 0.704059 -0.590462
vn 0.462979 0.552761 -0.692897
vn 0.513773 0.380535 -0.768915
vn 0.545022 0.193929 -0.815685
vn 0.555568 0 -0.831471
vn 0.545022 -0.193929 -0.815685
vn 0.513773 -0.380536 -0.768915
vn 0.462979 -0.552761 -0.692897
vn 0.394533 -0.704059 -0.590462
vn 0.310997 -0.828644 -0.465436
vn 0.215498 -0.921707 -0.322515
vn 0.11165 -0.979598 -0.167099
vn 0.142106 0.979598 -0.142106
vn 0.274277 0.921707 -0.274277
vn 0.395821 0.828644 -0.395821
vn 0.502146 0.704059 -0.502146
vn 0.589261 0.55276 -0.589261
vn 0.653907 0.380537 -0.653909
vn 0.693682 0.193931 -0.693683
vn 0.707105 -1.8922e-09 -0.707108
vn 0.693682 -0.193931 -0.693683
vn 0.653907 -0.380537 -0.653909
vn 0.589261 -0.55276 -0.589261
vn 0.502146 -0.704059 -0.502146
vn 0.39582 -0.828644 -0.395821
vn 0.274277 -0.921707 -0.274277
vn 0.142106 -0.979598 -0.142106
vn 0.167099 0.979598 -0.11165
vn 0.322515 0.921707 -0.215498
vn 0.465436 0.828644 -0.310996
vn 0.590462 0.704059 -0.394533
vn 0.692897 0.552761 -0.462979
vn 0.768915 0.380536 -0.513772
vn 0.815685 0.19393 -0.545021
vn 0.831471 0 -0.555568
vn 0.815685 -0.19393 -0.545021
vn 0.768915 -0.380536 -0.513772
vn 0.692897 -0.552761 -0.462979
vn 0.590462 -0.704059 -0.394533
vn 0.465436 -0.828644 -0.310995
vn 0.322516 -0.921707 -0.215498
vn 0.167099 -0.979598 -0.111651
vn -2.9388e-10 1 -9.40415e-10
vn 0.18567 0.979598 -0.0769073
vn 0.35836 0.921708 -0.148436
vn 0.517166 0.828644 -0.214216
vn 0.656085 0.704059 -0.27176
vn 0.769906 0.55276 -0.318906
vn 0.854373 0.380535 -0.353892
vn 0.90634 0.193931 -0.375419
vn 0.92388 9.461e-10 -0.382683
vn 0.90634 -0.193931 -0.375419
vn 0.854373 -0.380536 -0.353892
vn 0.769906 -0.55276 -0.318906
vn 0.656085 -0.704059 -0.27176
vn 0.517165 -0.828644 -0.214216
vn 0.35836 -0.921708 -0.148436
vn 0.18567 -0.979598 -0.0769073
vn 0.197107 0.979598 -0.0392056
vn 0.380433 0.921708 -0.0756724
vn 0.549019 0.828645 -0.109206
vn 0.696497 0.704058 -0.138543
vn 0.817329 0.552759 -0.162575
vn 0.906996 0.380537 -0.180413
vn 0.962165 0.19393 -0.191387
vn 0.980785 9.461e-10 -0.195091
vn 0.962165 -0.19393 -0.191387
vn 0.906996 -0.380537 -0.180413
vn 0.817329 -0.552759 -0.162575
vn 0.696497 -0.704058 -0.138543
vn 0.549019 -0.828645 -0.109206
vn 0.380433 -0.921708 -0.0756723
vn 0.197107 -0.979598 -0.0392056
vn 0.200967 0.979598 4.68579e-09
vn 0.387885 0.921708 6.66501e-08
vn 0.559775 0.828645 1.46712e-07
vn 0.710143 0.704058 4.71096e-07
vn 0.833341 0.552759 5.87018e-07
vn 0.924765 0.380538 5.25427e-07
vn 0.981015 0.193931 -3.29146e-07
vn 1 0 -1.10883e-06
vn 0.981015 -0.193931 -3.29146e-07
vn 0.924765 -0.380538 5.25427e-07
vn 0.833341 -0.552759 5.87018e-07
vn 0.710143 -0.704058 4.72038e-07
vn 0.559775 -0.828645 7.89987e-08
vn 0.387885 -0.921708 -1.6287e-07
vn 0.200967 -0.979598 -2.55376e-07
vn 0.197107 0.979598 0.0392056
vn 0.380433 0.921707 0.0756723
vn 0.549019 0.828645 0.109206
vn 0.696497 0.704058 0.138543
vn 0.817329 0.55276 0.162575
vn 0.906996 0.380538 0.180412
vn 0.962165 0.19393 0.191387
vn 0.980785 9.461e-10 0.195092
vn 0.962165 -0.19393 0.191388
vn 0.906996 -0.380538 0.180412
vn 0.817329 -0.55276 0.162575
vn 0.696497 -0.704058 0.138543
vn 0.549019 -0.828645 0.109206
vn 0.380433 -0.921707 0.0756725
vn 0.197107 -0.979598 0.0392058
vn 0.18567 0.979598 0.076907
vn 0.35836 0.921708 0.148435
vn 0.517166 0.828644 0.214216
vn 0.656086 0.704059 0.271759
vn 0.769906 0.55276 0.318905
vn 0.854373 0.380536 0.353891
vn 0.90634 0.193929 0.375419
vn 0.923879 -9.461e-10 0.382684
vn 0.90634 -0.193929 0.375419
vn 0.854373 -0.380536 0.353891
vn 0.769906 -0.55276 0.318905
vn 0.656086 -0.704059 0.271759
vn 0.517166 -0.828644 0.214216
vn 0.35836 -0.921708 0.148435
vn 0.18567 -0.979598 0.0769073
vn 0.167099 0.979598 0.111651
vn 0.322515 0.921708 0.215498
vn 0.465436 0.828644 0.310996
vn 0.590462 0.704058 0.394534
vn 0.692896 0.552761 0.462981
vn 0.768914 0.380537 0.513773
vn 0.815685 0.193929 0.545022
vn 0.83147 0 0.55557
vn 0.815685 -0.193929 0.545022
vn 0.768914 -0.380537 0.513773
vn 0.692896 -0.552761 0.462981
vn 0.590462 -0.704058 0.394534
vn 0.465436 -0.828644 0.310997
vn 0.322515 -0.921708 0.215498
vn 0.167099 -0.979598 0.111651
vn 0.142106 0.979598 0.142106
vn 0.274276 0.921707 0.274278
vn 0.39582 0.828645 0.395821
vn 0.502146 0.704059 0.502146
vn 0.589263 0.55276 0.589259
vn 0.653909 0.380537 0.653907
vn 0.693683 0.19393 0.693682
vn 0.707106 9.461e-10 0.707107
vn 0.693683 -0.19393 0.693682
vn 0.653909 -0.380537 0.653907
vn 0.589263 -0.55276 0.589259
vn 0.502146 -0.704059 0.502145
vn 0.395821 -0.828644 0.395821
vn 0.274276 -0.921707 0.274278
vn 0.142106 -0.979598 0.142106
vn 0.111651 0.979598 0.167099
vn 0.215498 0.921707 0.322515
vn 0.310996 0.828644 0.465436
vn 0.394533 0.704059 0.590462
vn 0.462978 0.552761 0.692897
vn 0.513772 0.380536 0.768915
vn 0.545021 0.193928 0.815686
vn 0.555569 9.461e-10 0.83147
vn 0.545021 -0.193928 0.815686
vn 0.513772 -0.380536 0.768915
vn 0.462978 -0.552761 0.692897
vn 0.394533 -0.704059 0.590462
vn 0.310996 -0.828644 0.465436
vn 0.215498 -0.921707 0.322515
vn 0.111651 -0.979598 0.167099
vn 0.0769073 0.979598 0.18567
vn 0.148437 0.921708 0.35836
vn 0.214216 0.828644 0.517165
vn 0.27176 0.704059 0.656085
vn 0.318905 0.55276 0.769907
vn 0.353891 0.380536 0.854373
vn 0.375417 0.193929 0.90634
vn 0.382684 9.461e-10 0.92388
vn 0.375417 -0.193929 0.90634
vn 0.353891 -0.380536 0.854373
vn 0.318905 -0.55276 0.769907
vn 0.27176 -0.704059 0.656085
vn 0.214216 -0.828644 0.517165
vn 0.148437 -0.921708 0.35836
vn 0.0769072 -0.979598 0.18567
vn 0.0392059 0.979598 0.197107
vn 0.0756725 0.921707 0.380433
vn 0.109206 0.828645 0.549019
vn 0.138543 0.704058 0.696497
vn 0.162576 0.552759 0.817329
vn 0.180413 0.380536 0.906997
vn 0.191388 0.193931 0.962165
vn 0.195091 -9.46101e-10 0.980785
vn 0.191387 -0.193931 0.962165
vn 0.180413 -0.380536 0.906997
vn 0.162576 -0.552759 0.817329
vn 0.138543 -0.704058 0.696497
vn 0.109206 -0.828645 0.549019
vn 0.0756724 -0.921707 0.380433
vn 0.0392058 -0.979598 0.197107
vn -2.55376e-07 0.979598 0.200967
vn -8.82409e-08 0.921708 0.387885
vn -1.09093e-07 0.828645 0.559775
vn -4.76749e-07 0.704058 0.710143
vn -5.87018e-07 0.552759 0.833341
vn 1.53092e-07 0.380537 0.924766
vn -3.89679e-07 0.19393 0.981015
vn -1.27534e-06 -9.461e-10 1
vn -3.90624e-07 -0.19393 0.981015
vn 1.54982e-07 -0.380537 0.924766
vn -5.87018e-07 -0.552759 0.833341
vn -4.76749e-07 -0.704058 0.710143
vn -8.27605e-08 -0.828645 0.559775
vn 6.80581e-08 -0.921708 0.387886
vn 4.92008e-09 -0.979598 0.200967
vn -0.0392057 0.979598 0.197107
vn -0.0756721 0.921708 0.380432
vn -0.109206 0.828644 0.54902
vn -0.138543 0.704058 0.696497
vn -0.162577 0.55276 0.817328
vn -0.180413 0.380536 0.906997
vn -0.191387 0.19393 0.962165
vn -0.195089 2.8383e-09 0.980786
vn -0.191387 -0.19393 0.962165
vn -0.180413 -0.380536 0.906997
vn -0.162577 -0.55276 0.817328
vn -0.138543 -0.704058 0.696497
vn -0.109206 -0.828645 0.549019
vn -0.0756725 -0.921707 0.380433
vn -0.0392059 -0.979598 0.197107
vn -0.0769073 0.979598 0.18567
vn -0.148437 0.921707 0.35836
vn -0.214218 0.828644 0.517165
vn -0.27176 0.704058 0.656086
vn -0.318906 0.552761 0.769905
vn -0.353891 0.380537 0.854373
vn -0.375417 0.19393 0.90634
vn -0.382684 -2.8383e-09 0.923879
vn -0.375417 -0.19393 0.90634
vn -0.353891 -0.380537 0.854373
vn -0.318906 -0.552761 0.769905
vn -0.27176 -0.704058 0.656086
vn -0.214217 -0.828644 0.517165
vn -0.148435 -0.921708 0.35836
vn -0.076907 -0.979598 0.18567
vn -0.111651 0.979598 0.167099
vn -0.215498 0.921707 0.322516
vn -0.310996 0.828645 0.465435
vn -0.394533 0.704058 0.590462
vn -0.46298 0.552761 0.692896
vn -0.513773 0.380537 0.768914
vn -0.545022 0.193929 0.815685
vn -0.55557 9.461e-10 0.83147
vn -0.545022 -0.193929 0.815685
vn -0.513773 -0.380537 0.768914
vn -0.46298 -0.552761 0.692896
vn -0.394533 -0.704058 0.590462
vn -0.310997 -0.828645 0.465435
vn -0.215499 -0.921707 0.322515
vn -0.111651 -0.979598 0.167099
vn -0.142106 0.979598 0.142106
vn -0.274278 0.921707 0.274276
vn -0.39582 0.828644 0.395822
vn -0.502146 0.704059 0.502146
vn -0.589262 0.55276 0.58926
vn -0.653908 0.380538 0.653907
vn -0.693683 0.193929 0.693683
vn -0.707108 -9.46099e-10 0.707106
vn -0.693683 -0.193929 0.693683
vn -0.653908 -0.380538 0.653907
vn -0.589262 -0.55276 0.58926
vn -0.502146 -0.704058 0.502146
vn -0.39582 -0.828644 0.395822
vn -0.274278 -0.921707 0.274276
vn -0.142106 -0.979598 0.142106
vn -1.29307e-09 -1 2.35104e-10
vn -0.167099 0.979598 0.11165
vn -0.322515 0.921707 0.215497
vn -0.465436 0.828644 0.310996
vn -0.590463 0.704057 0.394533
vn -0.692898 0.55276 0.462978
vn -0.768914 0.380539 0.513772
vn -0.815685 0.193928 0.545022
vn -0.83147 9.46099e-10 0.55557
vn -0.815685 -0.193928 0.545022
vn -0.768914 -0.380539 0.513772
vn -0.692898 -0.55276 0.462977
vn -0.590463 -0.704057 0.394533
vn -0.465436 -0.828644 0.310996
vn -0.322515 -0.921707 0.215498
vn -0.167099 -0.979598 0.111651
vn -0.18567 0.979598 0.0769073
vn -0.35836 0.921708 0.148437
vn -0.517165 0.828644 0.214216
vn -0.656086 0.704057 0.271761
vn -0.769906 0.55276 0.318906
vn -0.854372 0.380538 0.353892
vn -0.906341 0.193929 0.375417
vn -0.92388 -9.46101e-10 0.382683
vn -0.906341 -0.193929 0.375417
vn -0.854372 -0.380538 0.353892
vn -0.769906 -0.55276 0.318907
vn -0.656087 -0.704057 0.271761
vn -0.552929 -0.830308 0.0696976
vn -0.35836 -0.921708 0.148437
vn -0.18567 -0.979598 0.0769072
vn -0.197107 0.979598 0.0392059
vn -0.380433 0.921707 0.0756725
vn -0.549019 0.828645 0.109206
vn -0.696497 0.704058 0.138544
vn -0.817328 0.552759 0.162577
vn -0.906997 0.380536 0.180413
vn -0.962166 0.193929 0.191386
vn -0.980785 0 0.19509
vn -0.962166 -0.193929 0.191386
vn -0.906997 -0.380536 0.180413
vn -0.817328 -0.552759 0.162577
vn -0.645385 -0.757963 0.0947106
vn -0.568214 -0.815986 -0.106305
vn -0.466195 -0.883329 0.0489112
vn -0.197107 -0.979598 0.0392056
vn -0.200967 0.979598 -2.55376e-07
vn -0.387885 0.921708 -3.09782e-08
vn -0.559775 0.828645 -7.89987e-08
vn -0.710143 0.704058 -4.14564e-07
vn -0.833341 0.552759 -3.40225e-07
vn -0.924766 0.380537 2.72164e-07
vn -0.981015 0.193929 4.19945e-07
vn -1 0 -9.08256e-08
vn -0.981016 -0.193929 4.17107e-07
vn -0.924766 -0.380537 2.72164e-07
vn -0.833341 -0.552759 -3.39753e-07
vn -0.620254 -0.784401 -3.94904e-07
vn -0.548935 -0.835865 -3.56874e-08
vn -0.50738 -0.861722 1.58011e-07
vn -0.200967 -0.979598 2.55141e-07
vn -0.197107 0.979598 -0.0392056
vn -0.380433 0.921707 -0.0756724
vn -0.549019 0.828645 -0.109208
vn -0.696497 0.704058 -0.138543
vn -0.817328 0.55276 -0.162577
vn -0.906997 0.380536 -0.180413
vn -0.962166 0.193929 -0.191387
vn -0.980785 -1.8922e-09 -0.195092
vn -0.962166 -0.193929 -0.191387
vn -0.906997 -0.380536 -0.180413
vn -0.817328 -0.55276 -0.162577
vn -0.608336 -0.784401 -0.121007
vn -0.576775 -0.8161 0.0362286
vn -0.497631 -0.861722 -0.0989848
vn -0.197107 -0.979598 -0.0392059
vn -0.18567 0.979598 -0.0769073
vn -0.35836 0.921707 -0.148439
vn -0.517164 0.828645 -0.214218
vn -0.656085 0.704059 -0.27176
vn -0.769906 0.55276 -0.318907
vn -0.854372 0.380537 -0.353893
vn -0.906341 0.193928 -0.375418
vn -0.923879 9.46099e-10 -0.382684
vn -0.90634 -0.193928 -0.375418
vn -0.854372 -0.380537 -0.353893
vn -0.769906 -0.55276 -0.318907
vn -0.641307 -0.73207 -0.229779
vn -0.58714 -0.809418 -0.010436
vn -0.413114 -0.902132 -0.124476
vn -0.18567 -0.979598 -0.0769073
vn -0.167099 0.979598 -0.111651
vn -0.322515 0.921708 -0.215497
vn -0.465436 0.828645 -0.310994
vn -0.590462 0.704059 -0.394533
vn -0.692897 0.55276 -0.46298
vn -0.768914 0.380538 -0.513772
vn -0.815685 0.193928 -0.545023
vn -0.831469 0 -0.55557
vn -0.815685 -0.193928 -0.545023
vn -0.768914 -0.380538 -0.513772
vn -0.692897 -0.55276 -0.46298
vn -0.590462 -0.704059 -0.394533
vn -0.465436 -0.828645 -0.310994
vn -0.322515 -0.921708 -0.215497
vn -0.167099 -0.979598 -0.111651
vn -0.142106 0.979598 -0.142106
vn -0.274278 0.921707 -0.274276
vn -0.395821 0.828645 -0.395821
vn -0.502146 0.704058 -0.502146
vn -0.58926 0.55276 -0.589262
vn -0.653908 0.380537 -0.653908
vn -0.693683 0.193929 -0.693683
vn -0.707107 9.461e-10 -0.707106
vn -0.693683 -0.193929 -0.693683
vn -0.653908 -0.380537 -0.653908
vn -0.58926 -0.55276 -0.589262
vn -0.502146 -0.704058 -0.502146
vn -0.395821 -0.828645 -0.395821
vn -0.274278 -0.921707 -0.274276
vn -0.142106 -0.979598 -0.142106
vn -0.11165 0.979598 -0.167099
vn -0.215497 0.921707 -0.322517
vn -0.310994 0.828644 -0.465437
vn -0.394533 0.704058 -0.590463
vn -0.462977 0.55276 -0.692898
vn -0.513772 0.380538 -0.768914
vn -0.545023 0.193929 -0.815685
vn -0.55557 0 -0.83147
vn -0.545023 -0.193929 -0.815685
vn -0.513772 -0.380538 -0.768914
vn -0.462977 -0.55276 -0.692898
vn -0.394533 -0.704058 -0.590463
vn -0.310994 -0.828645 -0.465437
vn -0.215497 -0.921707 -0.322517
vn -0.111651 -0.979598 -0.167099
vn -0.0769072 0.979598 -0.18567
vn -0.148437 0.921707 -0.35836
vn -0.214218 0.828645 -0.517164
vn -0.271761 0.704058 -0.656086
vn -0.318907 0.55276 -0.769906
vn -0.353892 0.380538 -0.854372
vn -0.375417 0.193929 -0.906341
vn -0.382683 -9.46101e-10 -0.92388
vn -0.375417 -0.193929 -0.906341
vn -0.353892 -0.380538 -0.854372
vn -0.318907 -0.55276 -0.769906
vn -0.271761 -0.704058 -0.656086
vn -0.214218 -0.828645 -0.517164
vn -0.148437 -0.921707 -0.358361
vn -0.0769072 -0.979598 -0.18567
vn -0.0392057 0.979598 -0.197107
vn -0.0756733 0.921707 -0.380433
vn -0.109208 0.828645 -0.549019
vn -0.138544 0.704058 -0.696497
vn -0.162579 0.55276 -0.817328
vn -0.180413 0.380536 -0.906997
vn -0.191386 0.193929 -0.962166
vn -0.195091 -1.8922e-09 -0.980785
vn -0.191386 -0.193929 -0.962166
vn -0.180413 -0.380536 -0.906997
vn -0.162579 -0.55276 -0.817328
vn -0.138544 -0.704058 -0.696497
vn -0.109209 -0.828645 -0.549019
vn -0.0756733 -0.921707 -0.380433
vn -0.0392057 -0.979598 -0.197107
vn -2.54907e-07 0.979598 -0.200967
vn -1.62401e-07 0.921708 -0.387885
vn -3.45784e-07 0.704059 -0.710142
vn -1.11511e-07 0.380536 -0.924766
vn -1.11511e-07 -0.380536 -0.924766
vn -2.73235e-07 -0.704059 -0.710142
vn -3.00947e-08 -0.828645 -0.559775
vn -1.61462e-07 -0.921708 -0.387885
vn -2.54907e-07 -0.979598 -0.200967
f 478//478 17//17 6//6
f 476//476 9//9 10//10
f 6//6 18//18 479//479
f 2//2 10//10 11//11
f 479//479 19//19 480//480
f 477//477 11//11 12//12
f 480//480 20//20 481//481
f 3//3 12//12 13//13
f 481//481 21//21 482//482
f 3//3 14//14 4//4
f 474//474 82//82 7//7
f 308//308 482//482 21//21
f 4//4 15//15 5//5
f 475//475 7//7 8//8
f 5//5 16//16 478//478
f 1//1 8//8 9//9
f 15//15 31//31 16//16
f 8//8 24//24 9//9
f 16//16 32//32 17//17
f 9//9 25//25 10//10
f 17//17 33//33 18//18
f 10//10 26//26 11//11
f 19//19 33//33 34//34
f 11//11 27//27 12//12
f 20//20 34//34 35//35
f 13//13 27//27 28//28
f 20//20 36//36 21//21
f 13//13 29//29 14//14
f 7//7 82//82 22//22
f 308//308 21//21 36//36
f 14//14 30//30 15//15
f 7//7 23//23 8//8
f 34//34 50//50 35//35
f 27//27 43//43 28//28
f 35//35 51//51 36//36
f 28//28 44//44 29//29
f 22//22 82//82 37//37
f 308//308 36//36 51//51
f 30//30 44//44 45//45
f 22//22 38//38 23//23
f 30//30 46//46 31//31
f 23//23 39//39 24//24
f 32//32 46//46 47//47
f 24//24 40//40 25//25
f 33//33 47//47 48//48
f 25//25 41//41 26//26
f 34//34 48//48 49//49
f 26//26 42//42 27//27
f 38//38 54//54 39//39
f 47//47 61//61 62//62
f 39//39 55//55 40//40
f 47//47 63//63 48//48
f 40//40 56//56 41//41
f 48//48 64//64 49//49
f 41//41 57//57 42//42
f 49//49 65//65 50//50
f 43//43 57//57 58//58
f 50//50 66//66 51//51
f 44//44 58//58 59//59
f 37//37 82//82 52//52
f 308//308 51//51 66//66
f 44//44 60//60 45//45
f 37//37 53//53 38//38
f 45//45 61//61 46//46
f 58//58 72//72 73//73
f 65//65 81//81 66//66
f 59//59 73//73 74//74
f 52//52 82//82 67//67
f 308//308 66//66 81//81
f 59//59 75//75 60//60
f 52//52 68//68 53//53
f 60//60 76//76 61//61
f 53//53 69//69 54//54
f 62//62 76//76 77//77
f 54//54 70//70 55//55
f 62//62 78//78 63//63
f 56//56 70//70 71//71
f 63//63 79//79 64//64
f 56//56 72//72 57//57
f 65//65 79//79 80//80
f 77//77 92//92 93//93
f 69//69 86//86 70//70
f 77//77 94//94 78//78
f 71//71 86//86 87//87
f 78//78 95//95 79//79
f 71//71 88//88 72//72
f 79//79 96//96 80//80
f 73//73 88//88 89//89
f 81//81 96//96 97//97
f 74//74 89//89 90//90
f 67//67 82//82 83//83
f 308//308 81//81 97//97
f 74//74 91//91 75//75
f 67//67 84//84 68//68
f 75//75 92//92 76//76
f 68//68 85//85 69//69
f 96//96 112//112 97//97
f 90//90 104//104 105//105
f 83//83 82//82 98//98
f 308//308 97//97 112//112
f 90//90 106//106 91//91
f 84//84 98//98 99//99
f 91//91 107//107 92//92
f 84//84 100//100 85//85
f 93//93 107//107 108//108
f 85//85 101//101 86//86
f 93//93 109//109 94//94
f 87//87 101//101 102//102
f 95//95 109//109 110//110
f 87//87 103//103 88//88
f 96//96 110//110 111//111
f 89//89 103//103 104//104
f 108//108 124//124 109//109
f 102//102 116//116 117//117
f 110//110 124//124 125//125
f 102//102 118//118 103//103
f 110//110 126//126 111//111
f 104//104 118//118 119//119
f 111//111 127//127 112//112
f 105//105 119//119 120//120
f 98//98 82//82 113//113
f 308//308 112//112 127//127
f 105//105 121//121 106//106
f 99//99 113//113 114//114
f 106//106 122//122 107//107
f 99//99 115//115 100//100
f 108//108 122//122 123//123
f 100//100 116//116 101//101
f 113//113 82//82 128//128
f 308//308 127//127 142//142
f 120//120 136//136 121//121
f 113//113 129//129 114//114
f 121//121 137//137 122//122
f 114//114 130//130 115//115
f 123//123 137//137 138//138
f 115//115 131//131 116//116
f 123//123 139//139 124//124
f 117//117 131//131 132//132
f 125//125 139//139 140//140
f 117//117 133//133 118//118
f 125//125 141//141 126//126
f 119//119 133//133 134//134
f 126//126 142//142 127//127
f 120//120 134//134 135//135
f 132//132 146//146 147//147
f 140//140 154//154 155//155
f 132//132 148//148 133//133
f 140//140 156//156 141//141
f 134//134 148//148 149//149
f 142//142 156//156 157//157
f 135//135 149//149 150//150
f 128//128 82//82 143//143
f 308//308 142//142 157//157
f 135//135 151//151 136//136
f 128//128 144//144 129//129
f 136//136 152//152 137//137
f 130//130 144//144 145//145
f 138//138 152//152 153//153
f 130//130 146//146 131//131
f 138//138 154//154 139//139
f 150//150 166//166 151//151
f 143//143 159//159 144//144
f 151//151 167//167 152//152
f 145//145 159//159 160//160
f 153//153 167//167 168//168
f 145//145 161//161 146//146
f 153//153 169//169 154//154
f 147//147 161//161 162//162
f 155//155 169//169 170//170
f 147//147 163//163 148//148
f 155//155 171//171 156//156
f 149//149 163//163 164//164
f 156//156 172//172 157//157
f 150//150 164//164 165//165
f 143//143 82//82 158//158
f 308//308 157//157 172//172
f 169//169 185//185 170//170
f 162//162 178//178 163//163
f 171//171 185//185 186//186
f 164//164 178//178 179//179
f 172//172 186//186 187//187
f 165//165 179//179 180//180
f 158//158 82//82 173//173
f 308//308 172//172 187//187
f 165//165 181//181 166//166
f 158//158 174//174 159//159
f 166//166 182//182 167//167
f 159//159 175//175 160//160
f 168//168 182//182 183//183
f 160//160 176//176 161//161
f 168//168 184//184 169//169
f 162//162 176//176 177//177
f 174//174 188//188 189//189
f 181//181 197//197 182//182
f 175//175 189//189 190//190
f 183//183 197//197 198//198
f 175//175 191//191 176//176
f 183//183 199//199 184//184
f 177//177 191//191 192//192
f 185//185 199//199 200//200
f 177//177 193//193 178//178
f 185//185 201//201 186//186
f 179//179 193//193 194//194
f 186//186 202//202 187//187
f 180//180 194//194 195//195
f 173//173 82//82 188//188
f 308//308 187//187 202//202
f 180//180 196//196 181//181
f 192//192 208//208 193//193
f 200//200 216//216 201//201
f 194//194 208//208 209//209
f 201//201 217//217 202//202
f 195//195 209//209 210//210
f 188//188 82//82 203//203
f 308//308 202//202 217//217
f 195//195 211//211 196//196
f 188//188 204//204 189//189
f 196//196 212//212 197//197
f 189//189 205//205 190//190
f 198//198 212//212 213//213
f 190//190 206//206 191//191
f 198//198 214//214 199//199
f 192//192 206//206 207//207
f 200//200 214//214 215//215
f 211//211 227//227 212//212
f 204//204 220//220 205//205
f 213//213 227//227 228//228
f 205//205 221//221 206//206
f 213//213 229//229 214//214
f 207//207 221//221 222//222
f 215//215 229//229 230//230
f 207//207 223//223 208//208
f 215//215 231//231 216//216
f 209//209 223//223 224//224
f 216//216 232//232 217//217
f 210//210 224//224 225//225
f 203//203 82//82 218//218
f 308//308 217//217 232//232
f 210//210 226//226 211//211
f 203//203 219//219 204//204
f 230//230 246//246 231//231
f 224//224 238//238 239//239
f 232//232 246//246 247//247
f 225//225 239//239 240//240
f 218//218 82//82 233//233
f 308//308 232//232 247//247
f 225//225 241//241 226//226
f 218//218 234//234 219//219
f 226//226 242//242 227//227
f 220//220 234//234 235//235
f 228//228 242//242 243//243
f 220//220 236//236 221//221
f 228//228 244//244 229//229
f 222//222 236//236 237//237
f 230//230 244//244 245//245
f 222//222 238//238 223//223
f 243//243 257//257 258//258
f 235//235 251//251 236//236
f 243//243 259//259 244//244
f 237//237 251//251 252//252
f 245//245 259//259 260//260
f 237//237 253//253 238//238
f 245//245 261//261 246//246
f 239//239 253//253 254//254
f 246//246 262//262 247//247
f 240//240 254//254 255//255
f 233//233 82//82 248//248
f 308//308 247//247 262//262
f 240//240 256//256 241//241
f 233//233 249//249 234//234
f 241//241 257//257 242//242
f 234//234 250//250 235//235
f 261//261 277//277 262//262
f 255//255 269//269 270//270
f 248//248 82//82 263//263
f 308//308 262//262 277//277
f 255//255 271//271 256//256
f 249//249 263//263 264//264
f 256//256 272//272 257//257
f 249//249 265//265 250//250
f 258//258 272//272 273//273
f 250//250 266//266 251//251
f 258//258 274//274 259//259
f 252//252 266//266 267//267
f 260//260 274//274 275//275
f 252//252 268//268 253//253
f 260//260 276//276 261//261
f 254//254 268//268 269//269
f 265//265 281//281 266//266
f 273//273 289//289 274//274
f 267//267 281//281 282//282
f 275//275 289//289 290//290
f 267//267 283//283 268//268
f 275//275 291//291 276//276
f 269//269 283//283 284//284
f 277//277 291//291 292//292
f 270//270 284//284 285//285
f 263//263 82//82 278//278
f 308//308 277//277 292//292
f 270//270 286//286 271//271
f 264//264 278//278 279//279
f 271//271 287//287 272//272
f 264//264 280//280 265//265
f 273//273 287//287 288//288
f 285//285 299//299 300//300
f 278//278 82//82 293//293
f 308//308 292//292 307//307
f 285//285 301//301 286//286
f 278//278 294//294 279//279
f 286//286 302//302 287//287
f 279//279 295//295 280//280
f 288//288 302//302 303//303
f 280//280 296//296 281//281
f 288//288 304//304 289//289
f 282//282 296//296 297//297
f 290//290 304//304 305//305
f 282//282 298//298 283//283
f 290//290 306//306 291//291
f 284//284 298//298 299//299
f 292//292 306//306 307//307
f 303//303 320//320 304//304
f 297//297 312//312 313//313
f 305//305 320//320 321//321
f 297//297 314//314 298//298
f 305//305 322//322 306//306
f 299//299 314//314 315//315
f 306//306 323//323 307//307
f 300//300 315//315 316//316
f 293//293 82//82 309//309
f 308//308 307//307 323//323
f 300//300 317//317 301//301
f 293//293 310//310 294//294
f 301//301 318//318 302//302
f 294//294 311//311 295//295
f 303//303 318//318 319//319
f 295//295 312//312 296//296
f 309//309 82//82 324//324
f 308//308 323//323 338//338
f 316//316 332//332 317//317
f 309//309 325//325 310//310
f 317//317 333//333 318//318
f 310//310 326//326 311//311
f 319//319 333//333 334//334
f 311//311 327//327 312//312
f 319//319 335//335 320//320
f 312//312 328//328 313//313
f 321//321 335//335 336//336
f 313//313 329//329 314//314
f 321//321 337//337 322//322
f 315//315 329//329 330//330
f 322//322 338//338 323//323
f 316//316 330//330 331//331
f 328//328 342//342 343//343
f 336//336 350//350 351//351
f 328//328 344//344 329//329
f 336//336 352//352 337//337
f 330//330 344//344 345//345
f 337//337 353//353 338//338
f 331//331 345//345 346//346
f 324//324 82//82 339//339
f 308//308 338//338 353//353
f 331//331 347//347 332//332
f 324//324 340//340 325//325
f 332//332 348//348 333//333
f 325//325 341//341 326//326
f 334//334 348//348 349//349
f 326//326 342//342 327//327
f 334//334 350//350 335//335
f 346//346 362//362 347//347
f 339//339 355//355 340//340
f 347//347 363//363 348//348
f 341//341 355//355 356//356
f 349//349 363//363 364//364
f 341//341 357//357 342//342
f 349//349 365//365 350//350
f 343//343 357//357 358//358
f 351//351 365//365 366//366
f 343//343 359//359 344//344
f 351//351 367//367 352//352
f 345//345 359//359 360//360
f 352//352 368//368 353//353
f 346//346 360//360 361//361
f 339//339 82//82 354//354
f 308//308 353//353 368//368
f 366//366 380//380 381//381
f 358//358 374//374 359//359
f 366//366 382//382 367//367
f 360//360 374//374 375//375
f 367//367 383//383 368//368
f 361//361 375//375 376//376
f 354//354 82//82 369//369
f 308//308 368//368 383//383
f 361//361 377//377 362//362
f 354//354 370//370 355//355
f 362//362 378//378 363//363
f 356//356 370//370 371//371
f 364//364 378//378 379//379
f 356//356 372//372 357//357
f 364//364 380//380 365//365
f 358//358 372//372 373//373
f 377//377 393//393 378//378
f 371//371 385//385 386//386
f 379//379 393//393 394//394
f 371//371 387//387 372//372
f 379//379 395//395 380//380
f 373//373 387//387 388//388
f 381//381 395//395 396//396
f 373//373 389//389 374//374
f 381//381 397//397 382//382
f 375//375 389//389 390//390
f 382//382 398//398 383//383
f 376//376 390//390 391//391
f 369//369 82//82 384//384
f 308//308 383//383 398//398
f 376//376 392//392 377//377
f 369//369 385//385 370//370
f 397//397 411//411 412//412
f 390//390 404//404 405//405
f 397//397 413//413 398//398
f 391//391 405//405 406//406
f 384//384 82//82 399//399
f 308//308 398//398 413//413
f 391//391 407//407 392//392
f 385//385 399//399 400//400
f 392//392 408//408 393//393
f 385//385 401//401 386//386
f 394//394 408//408 409//409
f 386//386 402//402 387//387
f 394//394 410//410 395//395
f 388//388 402//402 403//403
f 396//396 410//410 411//411
f 388//388 404//404 389//389
f 401//401 415//415 416//416
f 409//409 423//423 424//424
f 401//401 417//417 402//402
f 409//409 425//425 410//410
f 403//403 417//417 418//418
f 411//411 425//425 426//426
f 403//403 419//419 404//404
f 411//411 427//427 412//412
f 405//405 419//419 420//420
f 412//412 428//428 413//413
f 406//406 420//420 421//421
f 399//399 82//82 414//414
f 308//308 413//413 428//428
f 406//406 422//422 407//407
f 399//399 415//415 400//400
f 407//407 423//423 408//408
f 420//420 434//434 435//435
f 427//427 443//443 428//428
f 421//421 435//435 436//436
f 414//414 82//82 429//429
f 308//308 428//428 443//443
f 421//421 437//437 422//422
f 414//414 430//430 415//415
f 422//422 438//438 423//423
f 416//416 430//430 431//431
f 424//424 438//438 439//439
f 416//416 432//432 417//417
f 424//424 440//440 425//425
f 418//418 432//432 433//433
f 426//426 440//440 441//441
f 418//418 434//434 419//419
f 426//426 442//442 427//427
f 439//439 453//453 454//454
f 431//431 447//447 432//432
f 439//439 455//455 440//440
f 433//433 447//447 448//448
f 441//441 455//455 456//456
f 433//433 449//449 434//434
f 441//441 457//457 442//442
f 435//435 449//449 450//450
f 442//442 458//458 443//443
f 436//436 450//450 451//451
f 429//429 82//82 444//444
f 308//308 443//443 458//458
f 436//436 452//452 437//437
f 430//430 444//444 445//445
f 437//437 453//453 438//438
f 430//430 446//446 431//431
f 458//458 472//472 473//473
f 451//451 465//465 466//466
f 444//444 82//82 459//459
f 308//308 458//458 473//473
f 451//451 467//467 452//452
f 444//444 460//460 445//445
f 452//452 468//468 453//453
f 446//446 460//460 461//461
f 454//454 468//468 469//469
f 446//446 462//462 447//447
f 454//454 470//470 455//455
f 448//448 462//462 463//463
f 456//456 470//470 471//471
f 448//448 464//464 449//449
f 456//456 472//472 457//457
f 450//450 464//464 465//465
f 462//462 1//1 476//476
f 469//469 479//479 470//470
f 463//463 476//476 2//2
f 471//471 479//479 480//480
f 464//464 2//2 477//477
f 471//471 481//481 472//472
f 465//465 477//477 3//3
f 472//472 482//482 473//473
f 466//466 3//3 4//4
f 459//459 82//82 474//474
f 308//308 473//473 482//482
f 466//466 5//5 467//467
f 460//460 474//474 475//475
f 467//467 478//478 468//468
f 461//461 475//475 1//1
f 468//468 6//6 469//469
f 478//478 16//16 17//17
f 476//476 1//1 9//9
f 6//6 17//17 18//18
f 2//2 476//476 10//10
f 479//479 18//18 19//19
f 477//477 2//2 11//11
f 480//480 19//19 20//20
f 3//3 477//477 12//12
f 481//481 20//20 21//21
f 3//3 13//13 14//14
f 4//4 14//14 15//15
f 475//475 474//474 7//7
f 5//5 15//15 16//16
f 1//1 475//475 8//8
f 15//15 30//30 31//31
f 8//8 23//23 24//24
f 16//16 31//31 32//32
f 9//9 24//24 25//25
f 17//17 32//32 33//33
f 10//10 25//25 26//26
f 19//19 18//18 33//33
f 11//11 26//26 27//27
f 20//20 19//19 34//34
f 13//13 12//12 27//27
f 20//20 35//35 36//36
f 13//13 28//28 29//29
f 14//14 29//29 30//30
f 7//7 22//22 23//23
f 34//34 49//49 50//50
f 27//27 42//42 43//43
f 35//35 50//50 51//51
f 28//28 43//43 44//44
f 30//30 29//29 44//44
f 22//22 37//37 38//38
f 30//30 45//45 46//46
f 23//23 38//38 39//39
f 32//32 31//31 46//46
f 24//24 39//39 40//40
f 33//33 32//32 47//47
f 25//25 40//40 41//41
f 34//34 33//33 48//48
f 26//26 41//41 42//42
f 38//38 53//53 54//54
f 47//47 46//46 61//61
f 39//39 54//54 55//55
f 47//47 62//62 63//63
f 40//40 55//55 56//56
f 48//48 63//63 64//64
f 41//41 56//56 57//57
f 49//49 64//64 65//65
f 43//43 42//42 57//57
f 50//50 65//65 66//66
f 44//44 43//43 58//58
f 44//44 59//59 60//60
f 37//37 52//52 53//53
f 45//45 60//60 61//61
f 58//58 57//57 72//72
f 65//65 80//80 81//81
f 59//59 58//58 73//73
f 59//59 74//74 75//75
f 52//52 67//67 68//68
f 60//60 75//75 76//76
f 53//53 68//68 69//69
f 62//62 61//61 76//76
f 54//54 69//69 70//70
f 62//62 77//77 78//78
f 56//56 55//55 70//70
f 63//63 78//78 79//79
f 56//56 71//71 72//72
f 65//65 64//64 79//79
f 77//77 76//76 92//92
f 69//69 85//85 86//86
f 77//77 93//93 94//94
f 71//71 70//70 86//86
f 78//78 94//94 95//95
f 71//71 87//87 88//88
f 79//79 95//95 96//96
f 73//73 72//72 88//88
f 81//81 80//80 96//96
f 74//74 73//73 89//89
f 74//74 90//90 91//91
f 67//67 83//83 84//84
f 75//75 91//91 92//92
f 68//68 84//84 85//85
f 96//96 111//111 112//112
f 90//90 89//89 104//104
f 90//90 105//105 106//106
f 84//84 83//83 98//98
f 91//91 106//106 107//107
f 84//84 99//99 100//100
f 93//93 92//92 107//107
f 85//85 100//100 101//101
f 93//93 108//108 109//109
f 87//87 86//86 101//101
f 95//95 94//94 109//109
f 87//87 102//102 103//103
f 96//96 95//95 110//110
f 89//89 88//88 103//103
f 108//108 123//123 124//124
f 102//102 101//101 116//116
f 110//110 109//109 124//124
f 102//102 117//117 118//118
f 110//110 125//125 126//126
f 104//104 103//103 118//118
f 111//111 126//126 127//127
f 105//105 104//104 119//119
f 105//105 120//120 121//121
f 99//99 98//98 113//113
f 106//106 121//121 122//122
f 99//99 114//114 115//115
f 108//108 107//107 122//122
f 100//100 115//115 116//116
f 120//120 135//135 136//136
f 113//113 128//128 129//129
f 121//121 136//136 137//137
f 114//114 129//129 130//130
f 123//123 122//122 137//137
f 115//115 130//130 131//131
f 123//123 138//138 139//139
f 117//117 116//116 131//131
f 125//125 124//124 139//139
f 117//117 132//132 133//133
f 125//125 140//140 141//141
f 119//119 118//118 133//133
f 126//126 141//141 142//142
f 120//120 119//119 134//134
f 132//132 131//131 146//146
f 140//140 139//139 154//154
f 132//132 147//147 148//148
f 140//140 155//155 156//156
f 134//134 133//133 148//148
f 142//142 141//141 156//156
f 135//135 134//134 149//149
f 135//135 150//150 151//151
f 128//128 143//143 144//144
f 136//136 151//151 152//152
f 130//130 129//129 144//144
f 138//138 137//137 152//152
f 130//130 145//145 146//146
f 138//138 153//153 154//154
f 150//150 165//165 166//166
f 143//143 158//158 159//159
f 151//151 166//166 167//167
f 145//145 144//144 159//159
f 153//153 152//152 167//167
f 145//145 160//160 161//161
f 153//153 168//168 169//169
f 147//147 146//146 161//161
f 155//155 154//154 169//169
f 147//147 162//162 163//163
f 155//155 170//170 171//171
f 149//149 148//148 163//163
f 156//156 171//171 172//172
f 150//150 149//149 164//164
f 169//169 184//184 185//185
f 162//162 177//177 178//178
f 171//171 170//170 185//185
f 164//164 163//163 178//178
f 172//172 171//171 186//186
f 165//165 164//164 179//179
f 165//165 180//180 181//181
f 158//158 173//173 174//174
f 166//166 181//181 182//182
f 159//159 174//174 175//175
f 168//168 167//167 182//182
f 160//160 175//175 176//176
f 168//168 183//183 184//184
f 162//162 161//161 176//176
f 174//174 173//173 188//188
f 181//181 196//196 197//197
f 175//175 174//174 189//189
f 183//183 182//182 197//197
f 175//175 190//190 191//191
f 183//183 198//198 199//199
f 177//177 176//176 191//191
f 185//185 184//184 199//199
f 177//177 192//192 193//193
f 185//185 200//200 201//201
f 179//179 178//178 193//193
f 186//186 201//201 202//202
f 180//180 179//179 194//194
f 180//180 195//195 196//196
f 192//192 207//207 208//208
f 200//200 215//215 216//216
f 194//194 193//193 208//208
f 201//201 216//216 217//217
f 195//195 194//194 209//209
f 195//195 210//210 211//211
f 188//188 203//203 204//204
f 196//196 211//211 212//212
f 189//189 204//204 205//205
f 198//198 197//197 212//212
f 190//190 205//205 206//206
f 198//198 213//213 214//214
f 192//192 191//191 206//206
f 200//200 199//199 214//214
f 211//211 226//226 227//227
f 204//204 219//219 220//220
f 213//213 212//212 227//227
f 205//205 220//220 221//221
f 213//213 228//228 229//229
f 207//207 206//206 221//221
f 215//215 214//214 229//229
f 207//207 222//222 223//223
f 215//215 230//230 231//231
f 209//209 208//208 223//223
f 216//216 231//231 232//232
f 210//210 209//209 224//224
f 210//210 225//225 226//226
f 203//203 218//218 219//219
f 230//230 245//245 246//246
f 224//224 223//223 238//238
f 232//232 231//231 246//246
f 225//225 224//224 239//239
f 225//225 240//240 241//241
f 218//218 233//233 234//234
f 226//226 241//241 242//242
f 220//220 219//219 234//234
f 228//228 227//227 242//242
f 220//220 235//235 236//236
f 228//228 243//243 244//244
f 222//222 221//221 236//236
f 230//230 229//229 244//244
f 222//222 237//237 238//238
f 243//243 242//242 257//257
f 235//235 250//250 251//251
f 243//243 258//258 259//259
f 237//237 236//236 251//251
f 245//245 244//244 259//259
f 237//237 252//252 253//253
f 245//245 260//260 261//261
f 239//239 238//238 253//253
f 246//246 261//261 262//262
f 240//240 239//239 254//254
f 240//240 255//255 256//256
f 233//233 248//248 249//249
f 241//241 256//256 257//257
f 234//234 249//249 250//250
f 261//261 276//276 277//277
f 255//255 254//254 269//269
f 255//255 270//270 271//271
f 249//249 248//248 263//263
f 256//256 271//271 272//272
f 249//249 264//264 265//265
f 258//258 257//257 272//272
f 250//250 265//265 266//266
f 258//258 273//273 274//274
f 252//252 251//251 266//266
f 260//260 259//259 274//274
f 252//252 267//267 268//268
f 260//260 275//275 276//276
f 254//254 253//253 268//268
f 265//265 280//280 281//281
f 273//273 288//288 289//289
f 267//267 266//266 281//281
f 275//275 274//274 289//289
f 267//267 282//282 283//283
f 275//275 290//290 291//291
f 269//269 268//268 283//283
f 277//277 276//276 291//291
f 270//270 269//269 284//284
f 270//270 285//285 286//286
f 264//264 263//263 278//278
f 271//271 286//286 287//287
f 264//264 279//279 280//280
f 273//273 272//272 287//287
f 285//285 284//284 299//299
f 285//285 300//300 301//301
f 278//278 293//293 294//294
f 286//286 301//301 302//302
f 279//279 294//294 295//295
f 288//288 287//287 302//302
f 280//280 295//295 296//296
f 288//288 303//303 304//304
f 282//282 281//281 296//296
f 290//290 289//289 304//304
f 282//282 297//297 298//298
f 290//290 305//305 306//306
f 284//284 283//283 298//298
f 292//292 291//291 306//306
f 303//303 319//319 320//320
f 297//297 296//296 312//312
f 305//305 304//304 320//320
f 297//297 313//313 314//314
f 305//305 321//321 322//322
f 299//299 298//298 314//314
f 306//306 322//322 323//323
f 300//300 299//299 315//315
f 300//300 316//316 317//317
f 293//293 309//309 310//310
f 301//301 317//317 318//318
f 294//294 310//310 311//311
f 303//303 302//302 318//318
f 295//295 311//311 312//312
f 316//316 331//331 332//332
f 309//309 324//324 325//325
f 317//317 332//332 333//333
f 310//310 325//325 326//326
f 319//319 318//318 333//333
f 311//311 326//326 327//327
f 319//319 334//334 335//335
f 312//312 327//327 328//328
f 321//321 320//320 335//335
f 313//313 328//328 329//329
f 321//321 336//336 337//337
f 315//315 314//314 329//329
f 322//322 337//337 338//338
f 316//316 315//315 330//330
f 328//328 327//327 342//342
f 336//336 335//335 350//350
f 328//328 343//343 344//344
f 336//336 351//351 352//352
f 330//330 329//329 344//344
f 337//337 352//352 353//353
f 331//331 330//330 345//345
f 331//331 346//346 347//347
f 324//324 339//339 340//340
f 332//332 347//347 348//348
f 325//325 340//340 341//341
f 334//334 333//333 348//348
f 326//326 341//341 342//342
f 334//334 349//349 350//350
f 346//346 361//361 362//362
f 339//339 354//354 355//355
f 347//347 362//362 363//363
f 341//341 340//340 355//355
f 349//349 348//348 363//363
f 341//341 356//356 357//357
f 349//349 364//364 365//365
f 343//343 342//342 357//357
f 351//351 350//350 365//365
f 343//343 358//358 359//359
f 351//351 366//366 367//367
f 345//345 344//344 359//359
f 352//352 367//367 368//368
f 346//346 345//345 360//360
f 366//366 365//365 380//380
f 358//358 373//373 374//374
f 366//366 381//381 382//382
f 360//360 359//359 374//374
f 367//367 382//382 383//383
f 361//361 360//360 375//375
f 361//361 376//376 377//377
f 354//354 369//369 370//370
f 362//362 377//377 378//378
f 356//356 355//355 370//370
f 364//364 363//363 378//378
f 356//356 371//371 372//372
f 364//364 379//379 380//380
f 358//358 357//357 372//372
f 377//377 392//392 393//393
f 371//371 370//370 385//385
f 379//379 378//378 393//393
f 371//371 386//386 387//387
f 379//379 394//394 395//395
f 373//373 372//372 387//387
f 381//381 380//380 395//395
f 373//373 388//388 389//389
f 381//381 396//396 397//397
f 375//375 374//374 389//389
f 382//382 397//397 398//398
f 376//376 375//375 390//390
f 376//376 391//391 392//392
f 369//369 384//384 385//385
f 397//397 396//396 411//411
f 390//390 389//389 404//404
f 397//397 412//412 413//413
f 391//391 390//390 405//405
f 391//391 406//406 407//407
f 385//385 384//384 399//399
f 392//392 407//407 408//408
f 385//385 400//400 401//401
f 394//394 393//393 408//408
f 386//386 401//401 402//402
f 394//394 409//409 410//410
f 388//388 387//387 402//402
f 396//396 395//395 410//410
f 388//388 403//403 404//404
f 401//401 400//400 415//415
f 409//409 408//408 423//423
f 401//401 416//416 417//417
f 409//409 424//424 425//425
f 403//403 402//402 417//417
f 411//411 410//410 425//425
f 403//403 418//418 419//419
f 411//411 426//426 427//427
f 405//405 404//404 419//419
f 412//412 427//427 428//428
f 406//406 405//405 420//420
f 406//406 421//421 422//422
f 399//399 414//414 415//415
f 407//407 422//422 423//423
f 420//420 419//419 434//434
f 427//427 442//442 443//443
f 421//421 420//420 435//435
f 421//421 436//436 437//437
f 414//414 429//429 430//430
f 422//422 437//437 438//438
f 416//416 415//415 430//430
f 424//424 423//423 438//438
f 416//416 431//431 432//432
f 424//424 439//439 440//440
f 418//418 417//417 432//432
f 426//426 425//425 440//440
f 418//418 433//433 434//434
f 426//426 441//441 442//442
f 439//439 438//438 453//453
f 431//431 446//446 447//447
f 439//439 454//454 455//455
f 433//433 432//432 447//447
f 441//441 440//440 455//455
f 433//433 448//448 449//449
f 441//441 456//456 457//457
f 435//435 434//434 449//449
f 442//442 457//457 458//458
f 436//436 435//435 450//450
f 436//436 451//451 452//452
f 430//430 429//429 444//444
f 437//437 452//452 453//453
f 430//430 445//445 446//446
f 458//458 457//457 472//472
f 451//451 450//450 465//465
f 451//451 466//466 467//467
f 444//444 459//459 460//460
f 452//452 467//467 468//468
f 446//446 445//445 460//460
f 454//454 453//453 468//468
f 446//446 461//461 462//462
f 454//454 469//469 470//470
f 448//448 447//447 462//462
f 456//456 455//455 470//470
f 448//448 463//463 464//464
f 456//456 471//471 472//472
f 450//450 449//449 464//464
f 462//462 461//461 1//1
f 469//469 6//6 479//479
f 463//463 462//462 476//476
f 471//471 470//470 479//479
f 464//464 463//463 2//2
f 471//471 480//480 481//481
f 465//465 464//464 477//477
f 472//472 481//481 482//482
f 466//466 465//465 3//3
f 466//466 4//4 5//5
f 460//460 459//459 474//474
f 467//467 5//5 478//478
f 461//461 460//460 475//475
f 468//468 478//478 6//6
