0.000000 0.100000 0.100000 0.100000 0.200000 0.100000 0.300000 0.100000 0.400000 0.100000 0.500000 0.100000 0.600000 0.100000 0.700000 0.100000 0.800000 0.100000 0.900000 0.100000 1.000000 0.100000 
0.000000 0.100000 0.100000 0.100000 0.200000 0.100000 0.300000 0.100000 0.400000 0.100000 0.500000 0.100000 0.600000 0.100000 0.700000 0.100000 0.800000 0.100000 0.900000 0.100000 1.000000 0.100000 
0.000000 0.100000 0.100072 0.099894 0.200161 0.099788 0.300216 0.099438 0.400264 0.099095 0.500292 0.098620 0.600315 0.098149 0.700325 0.097620 0.800332 0.097096 0.900332 0.096557 1.000332 0.096022 
0.000000 0.100000 0.100144 0.099787 0.200322 0.099574 0.300431 0.098876 0.400526 0.098189 0.500580 0.097238 0.600624 0.096295 0.700641 0.095237 0.800652 0.094187 0.900650 0.093109 1.000646 0.092039 
0.000000 0.100000 0.100216 0.099681 0.200483 0.099360 0.300646 0.098311 0.400786 0.097280 0.500864 0.095852 0.600927 0.094438 0.700948 0.092849 0.800960 0.091274 0.900953 0.089656 1.000942 0.088051 
0.000000 0.100000 0.100289 0.099575 0.200645 0.099146 0.300859 0.097746 0.401045 0.096369 0.501144 0.094464 0.601223 0.092578 0.701246 0.090458 0.801256 0.088357 0.901240 0.086199 1.001221 0.084058 
0.000000 0.100000 0.100362 0.099469 0.200807 0.098930 0.301072 0.097179 0.401301 0.095456 0.501420 0.093074 0.601512 0.090714 0.701534 0.088064 0.801540 0.085436 0.901513 0.082737 1.001481 0.080061 
0.000000 0.100000 0.100435 0.099363 0.200969 0.098714 0.301285 0.096611 0.401556 0.094541 0.501692 0.091681 0.601796 0.088847 0.701813 0.085666 0.801812 0.082511 0.901770 0.079272 1.001723 0.076059 
0.000000 0.100000 0.100508 0.099257 0.201132 0.098496 0.301496 0.096041 0.401809 0.093623 0.501959 0.090285 0.602073 0.086977 0.702083 0.083264 0.802072 0.079582 0.902013 0.075802 1.001947 0.072053 
0.000000 0.100000 0.100581 0.099151 0.201295 0.098278 0.301706 0.095471 0.402059 0.092704 0.502222 0.088887 0.602343 0.085104 0.702343 0.080859 0.802320 0.076650 0.902240 0.072329 1.002153 0.068043 
0.000000 0.100000 0.100654 0.099045 0.201458 0.098059 0.301916 0.094899 0.402308 0.091783 0.502481 0.087486 0.602607 0.083228 0.702594 0.078451 0.802555 0.073714 0.902452 0.068852 1.002341 0.064029 
0.000000 0.100000 0.100728 0.098939 0.201622 0.097839 0.302125 0.094325 0.402555 0.090859 0.502736 0.086083 0.602864 0.081349 0.702836 0.076040 0.802778 0.070775 0.902648 0.065372 1.002510 0.060012 
0.000000 0.100000 0.100802 0.098833 0.201786 0.097619 0.302333 0.093751 0.402800 0.089934 0.502986 0.084677 0.603115 0.079468 0.703068 0.073626 0.802988 0.067833 0.902830 0.061888 1.002661 0.055991 
0.000000 0.100000 0.100876 0.098727 0.201950 0.097397 0.302540 0.093175 0.403042 0.089006 0.503232 0.083269 0.603359 0.077583 0.703291 0.071209 0.803187 0.064888 0.902995 0.058401 1.002794 0.051967 
0.000000 0.100000 0.100950 0.098621 0.202114 0.097175 0.302746 0.092598 0.403283 0.088077 0.503473 0.081859 0.603596 0.075696 0.703504 0.068788 0.803373 0.061939 0.903146 0.054911 1.002908 0.047940 
0.000000 0.100000 0.101024 0.098516 0.202279 0.096952 0.302951 0.092019 0.403522 0.087146 0.503710 0.080446 0.603827 0.073806 0.703707 0.066366 0.803546 0.058988 0.903281 0.051419 1.003004 0.043910 
